{
    "name": "Legisavia"
}
%%
307
2898
2902
2903
2904
2905
2906
2907
2908
2909
3027
3028
3029
3030
3031
3032
3033
3034
3035
3036
3037
3038
3039
3040
3041
3032
3043
3044
3159
3160
3161
3162
3163
3164
3165
3166
3167
3168
3169
3170
3171
3172
3173
3174
3175
3297
3298
3299
3300
3301
3302
3303
3304
3305
3306
3307
3308
3309
3432
3433
3434
3435
3436
3437
3438
3598
3719
