{
    "name": "Myrheon"
}
%%
## Cities:
# Capital Myr
3623
# Former Heonian Capital Heon
4488
## Territory
# North Myrean 
3080
2947
3081
3082
3220
3221
3355
3356
3357
3222
3358
3225
# Central Myrean
3350
3351
3352
3488
3489
3490
3491	
3492
3493
3619
3620
3621
3622
3738
3739
3740
3741
3742
3743
3744
3745
3746
3870
3871
3872
3873
3874
3875
3876
# South Myrean
3877
3879
3881
3880
3991
3993
3994
3995
3996
3997
3998
3999
4000
4001
4120
4121
4122
4123
4124
# East Heonian
4241
4242
4365
4366
4367
4368
4369
4370
4486
4487
4489
4490
4491
4623
4624
4625
4626
4627
4628
4762
4763
4760
# West Heonian
4754
4755
4756
4757
4758
4759
4761
4907
4908
4909
# Deerfox Island
4476
4609
4610
4743
4744
4745
4746
4747
4748
4750
4751
4892
4893
4894
4895
4896
4897
4898
4899
4900
4901
4902
4903
5047
5052
5053
5054
5055
5056
5210